Covid_19_Project: Continued Analysis
…
Step 3: Question - Which countries have had the highest number of deaths due to COVID-19

# Summarize the dataset
covid_df_all_states_cumulative_max <- covid_df_all_states_cumulative %>% 
  group_by(Continent_Name, Two_Letter_Country_Code) %>% 
summarise(death_max = max(death)) %>% 
  filter(death_max > 0) %>% 
  arrange(-death_max)

# Display the dataset
covid_df_all_states_cumulative_max

## # A tibble: 24 x 3
## # Groups:   Continent_Name [4]
##    Continent_Name Two_Letter_Country_Code death_max
##    <fct>          <fct>                       <int>
##  1 North America  US                          98536
##  2 Europe         IT                          33415
##  3 Europe         GB                          33186
##  4 Europe         BE                           8903
##  5 Asia           RU                           4693
##  6 Asia           TR                           4540
##  7 Europe         SE                           4395
##  8 North America  CA                           3682
##  9 Oceania        NZ                           1421
## 10 Europe         PL                           1065
## #  with 14 more rows
…
